{
  "getUpcomingEvents" : {
    "transaction" : "getUpcomingEvents",
    "sampleCount" : 37,
    "errorCount" : 0,
    "errorPct" : 0.0,
    "meanResTime" : 8780.054054054053,
    "medianResTime" : 4339.0,
    "minResTime" : 71.0,
    "maxResTime" : 70928.0,
    "pct1ResTime" : 24877.800000000017,
    "pct2ResTime" : 35329.40000000005,
    "pct3ResTime" : 70928.0,
    "throughput" : 0.12095772364102363,
    "receivedKBytesPerSec" : 0.07051929786493272,
    "sentKBytesPerSec" : 0.1736404821799851
  },
  "findAllFeeGroup" : {
    "transaction" : "findAllFeeGroup",
    "sampleCount" : 35,
    "errorCount" : 1,
    "errorPct" : 2.857143,
    "meanResTime" : 72845.31428571428,
    "medianResTime" : 64457.0,
    "minResTime" : 4206.0,
    "maxResTime" : 201823.0,
    "pct1ResTime" : 163686.59999999998,
    "pct2ResTime" : 182769.3999999999,
    "pct3ResTime" : 201823.0,
    "throughput" : 0.09127204545869419,
    "receivedKBytesPerSec" : 0.08277895752329394,
    "sentKBytesPerSec" : 0.09831354115326141
  },
  "findAllChildActiveSubsidies" : {
    "transaction" : "findAllChildActiveSubsidies",
    "sampleCount" : 31,
    "errorCount" : 3,
    "errorPct" : 9.67742,
    "meanResTime" : 93532.25806451614,
    "medianResTime" : 77996.0,
    "minResTime" : 10597.0,
    "maxResTime" : 348158.0,
    "pct1ResTime" : 157498.4,
    "pct2ResTime" : 316368.19999999995,
    "pct3ResTime" : 348158.0,
    "throughput" : 0.08082915064207026,
    "receivedKBytesPerSec" : 0.08551430806335963,
    "sentKBytesPerSec" : 0.13174204338048368
  },
  "getListDomainByLevel" : {
    "transaction" : "getListDomainByLevel",
    "sampleCount" : 42,
    "errorCount" : 1,
    "errorPct" : 2.3809524,
    "meanResTime" : 105228.45238095237,
    "medianResTime" : 86118.5,
    "minResTime" : 15670.0,
    "maxResTime" : 361143.0,
    "pct1ResTime" : 201382.40000000002,
    "pct2ResTime" : 232744.30000000005,
    "pct3ResTime" : 361143.0,
    "throughput" : 0.10956502684343158,
    "receivedKBytesPerSec" : 0.566182778921254,
    "sentKBytesPerSec" : 0.19484171277528212
  },
  "getPendingEvents" : {
    "transaction" : "getPendingEvents",
    "sampleCount" : 42,
    "errorCount" : 4,
    "errorPct" : 9.523809,
    "meanResTime" : 92098.64285714286,
    "medianResTime" : 67594.0,
    "minResTime" : 4791.0,
    "maxResTime" : 225939.0,
    "pct1ResTime" : 192080.90000000002,
    "pct2ResTime" : 223248.05000000002,
    "pct3ResTime" : 225939.0,
    "throughput" : 0.10948591150931543,
    "receivedKBytesPerSec" : 0.0549822525292549,
    "sentKBytesPerSec" : 0.1424172208304767
  },
  "getPortfolioTermByYear" : {
    "transaction" : "getPortfolioTermByYear",
    "sampleCount" : 70,
    "errorCount" : 1,
    "errorPct" : 1.4285715,
    "meanResTime" : 43913.814285714274,
    "medianResTime" : 26812.0,
    "minResTime" : 234.0,
    "maxResTime" : 243857.0,
    "pct1ResTime" : 111674.4,
    "pct2ResTime" : 146889.40000000008,
    "pct3ResTime" : 243857.0,
    "throughput" : 0.1824945968564002,
    "receivedKBytesPerSec" : 0.18981678520125245,
    "sentKBytesPerSec" : 0.231456002996822
  },
  "findAllCurrentFeeTier" : {
    "transaction" : "findAllCurrentFeeTier",
    "sampleCount" : 36,
    "errorCount" : 22,
    "errorPct" : 61.11111,
    "meanResTime" : 220767.1666666667,
    "medianResTime" : 216608.5,
    "minResTime" : 70411.0,
    "maxResTime" : 378536.0,
    "pct1ResTime" : 375618.9,
    "pct2ResTime" : 377040.0,
    "pct3ResTime" : 378536.0,
    "throughput" : 0.09384457773850209,
    "receivedKBytesPerSec" : 0.396492322666333,
    "sentKBytesPerSec" : 0.2375440874005834
  },
  "findAllClassResources" : {
    "transaction" : "findAllClassResources",
    "sampleCount" : 34,
    "errorCount" : 0,
    "errorPct" : 0.0,
    "meanResTime" : 14538.529411764704,
    "medianResTime" : 3719.5,
    "minResTime" : 259.0,
    "maxResTime" : 197419.0,
    "pct1ResTime" : 34265.5,
    "pct2ResTime" : 135778.75,
    "pct3ResTime" : 197419.0,
    "throughput" : 0.10783654517082578,
    "receivedKBytesPerSec" : 0.06329078481217412,
    "sentKBytesPerSec" : 0.14974957737589284
  },
  "listBulkInvoiceRequest" : {
    "transaction" : "listBulkInvoiceRequest",
    "sampleCount" : 29,
    "errorCount" : 4,
    "errorPct" : 13.793103,
    "meanResTime" : 136237.1379310345,
    "medianResTime" : 117897.0,
    "minResTime" : 23749.0,
    "maxResTime" : 375203.0,
    "pct1ResTime" : 257208.0,
    "pct2ResTime" : 336991.5,
    "pct3ResTime" : 375203.0,
    "throughput" : 0.07559899166586288,
    "receivedKBytesPerSec" : 0.1083171436354773,
    "sentKBytesPerSec" : 0.11450589460327473
  },
  "findAllCustomSubsidies" : {
    "transaction" : "findAllCustomSubsidies",
    "sampleCount" : 34,
    "errorCount" : 2,
    "errorPct" : 5.882353,
    "meanResTime" : 70556.20588235294,
    "medianResTime" : 55339.5,
    "minResTime" : 3399.0,
    "maxResTime" : 257678.0,
    "pct1ResTime" : 132051.0,
    "pct2ResTime" : 256549.25,
    "pct3ResTime" : 257678.0,
    "throughput" : 0.08879208810264366,
    "receivedKBytesPerSec" : 0.10307135341993175,
    "sentKBytesPerSec" : 0.11099011012830458
  },
  "findAllUploadedSubsidyFiles" : {
    "transaction" : "findAllUploadedSubsidyFiles",
    "sampleCount" : 36,
    "errorCount" : 2,
    "errorPct" : 5.5555553,
    "meanResTime" : 71854.47222222223,
    "medianResTime" : 55230.0,
    "minResTime" : 11850.0,
    "maxResTime" : 318671.0,
    "pct1ResTime" : 134991.40000000008,
    "pct2ResTime" : 173838.64999999976,
    "pct3ResTime" : 318671.0,
    "throughput" : 0.09403160506725872,
    "receivedKBytesPerSec" : 7.440345129456706,
    "sentKBytesPerSec" : 0.13544591550215487
  },
  "getAllChildDiscounts" : {
    "transaction" : "getAllChildDiscounts",
    "sampleCount" : 35,
    "errorCount" : 3,
    "errorPct" : 8.571428,
    "meanResTime" : 79609.51428571428,
    "medianResTime" : 59133.0,
    "minResTime" : 9102.0,
    "maxResTime" : 302046.0,
    "pct1ResTime" : 182778.5999999999,
    "pct2ResTime" : 258401.99999999977,
    "pct3ResTime" : 302046.0,
    "throughput" : 0.09123873527471983,
    "receivedKBytesPerSec" : 0.05515819411822976,
    "sentKBytesPerSec" : 0.15031225235200427
  },
  "getChildFinancialAssistanceStatus" : {
    "transaction" : "getChildFinancialAssistanceStatus",
    "sampleCount" : 40,
    "errorCount" : 13,
    "errorPct" : 32.5,
    "meanResTime" : 162134.82499999995,
    "medianResTime" : 142303.0,
    "minResTime" : 56028.0,
    "maxResTime" : 383476.0,
    "pct1ResTime" : 279336.1,
    "pct2ResTime" : 310334.9499999999,
    "pct3ResTime" : 383476.0,
    "throughput" : 0.10430791697089808,
    "receivedKBytesPerSec" : 0.0687169148325858,
    "sentKBytesPerSec" : 0.13680227782413684
  },
  "getMyDownloadPortfolio" : {
    "transaction" : "getMyDownloadPortfolio",
    "sampleCount" : 39,
    "errorCount" : 2,
    "errorPct" : 5.1282053,
    "meanResTime" : 44319.282051282054,
    "medianResTime" : 24975.0,
    "minResTime" : 1282.0,
    "maxResTime" : 275921.0,
    "pct1ResTime" : 99364.0,
    "pct2ResTime" : 201431.0,
    "pct3ResTime" : 275921.0,
    "throughput" : 0.1016827186308813,
    "receivedKBytesPerSec" : 0.05948805684324696,
    "sentKBytesPerSec" : 0.10436380593853149
  },
  "getListDomain" : {
    "transaction" : "getListDomain",
    "sampleCount" : 68,
    "errorCount" : 5,
    "errorPct" : 7.352941,
    "meanResTime" : 92840.69117647062,
    "medianResTime" : 72644.5,
    "minResTime" : 143.0,
    "maxResTime" : 366160.0,
    "pct1ResTime" : 209155.90000000005,
    "pct2ResTime" : 286828.55,
    "pct3ResTime" : 366160.0,
    "throughput" : 0.17740626818088134,
    "receivedKBytesPerSec" : 0.746965178802038,
    "sentKBytesPerSec" : 0.2949476023738524
  },
  "getLessonPlan" : {
    "transaction" : "getLessonPlan",
    "sampleCount" : 32,
    "errorCount" : 0,
    "errorPct" : 0.0,
    "meanResTime" : 8931.15625,
    "medianResTime" : 3385.5,
    "minResTime" : 198.0,
    "maxResTime" : 87456.0,
    "pct1ResTime" : 28006.59999999999,
    "pct2ResTime" : 59496.89999999991,
    "pct3ResTime" : 87456.0,
    "throughput" : 0.09787249660504778,
    "receivedKBytesPerSec" : 0.06375093284723327,
    "sentKBytesPerSec" : 0.15694007756395356
  },
  "getAdvancePaymentReceipts" : {
    "transaction" : "getAdvancePaymentReceipts",
    "sampleCount" : 34,
    "errorCount" : 4,
    "errorPct" : 11.764706,
    "meanResTime" : 94305.32352941175,
    "medianResTime" : 71744.5,
    "minResTime" : 5220.0,
    "maxResTime" : 350520.0,
    "pct1ResTime" : 190552.5,
    "pct2ResTime" : 258135.0,
    "pct3ResTime" : 350520.0,
    "throughput" : 0.0887723823896481,
    "receivedKBytesPerSec" : 0.12335730296447538,
    "sentKBytesPerSec" : 0.14156767621317903
  },
  "findAllProgramBillingUpload" : {
    "transaction" : "findAllProgramBillingUpload",
    "sampleCount" : 36,
    "errorCount" : 5,
    "errorPct" : 13.888889,
    "meanResTime" : 101256.13888888889,
    "medianResTime" : 97145.5,
    "minResTime" : 7680.0,
    "maxResTime" : 256413.0,
    "pct1ResTime" : 197136.00000000003,
    "pct2ResTime" : 211308.59999999992,
    "pct3ResTime" : 256413.0,
    "throughput" : 0.09396631829524217,
    "receivedKBytesPerSec" : 0.12027454233835183,
    "sentKBytesPerSec" : 0.14012360159847148
  },
  "findAllChildHistorySubsidiesForBillingAdjustment" : {
    "transaction" : "findAllChildHistorySubsidiesForBillingAdjustment",
    "sampleCount" : 37,
    "errorCount" : 8,
    "errorPct" : 21.621622,
    "meanResTime" : 156700.5945945946,
    "medianResTime" : 147366.0,
    "minResTime" : 2.0,
    "maxResTime" : 350000.0,
    "pct1ResTime" : 277107.00000000006,
    "pct2ResTime" : 326748.50000000006,
    "pct3ResTime" : 350000.0,
    "throughput" : 0.09645841208597834,
    "receivedKBytesPerSec" : 0.1278185978987708,
    "sentKBytesPerSec" : 0.16873093642869247
  },
  "getChildSemesterEvaluation" : {
    "transaction" : "getChildSemesterEvaluation",
    "sampleCount" : 45,
    "errorCount" : 0,
    "errorPct" : 0.0,
    "meanResTime" : 56394.200000000004,
    "medianResTime" : 41106.0,
    "minResTime" : 2579.0,
    "maxResTime" : 213690.0,
    "pct1ResTime" : 128497.79999999999,
    "pct2ResTime" : 147769.49999999994,
    "pct3ResTime" : 213690.0,
    "throughput" : 0.11897774323016641,
    "receivedKBytesPerSec" : 0.0916732806724622,
    "sentKBytesPerSec" : 0.18241704772593875
  },
  "getCentreManagementConfig" : {
    "transaction" : "getCentreManagementConfig",
    "sampleCount" : 29,
    "errorCount" : 1,
    "errorPct" : 3.4482758,
    "meanResTime" : 39208.51724137931,
    "medianResTime" : 16525.0,
    "minResTime" : 1828.0,
    "maxResTime" : 257016.0,
    "pct1ResTime" : 102614.0,
    "pct2ResTime" : 219812.5,
    "pct3ResTime" : 257016.0,
    "throughput" : 0.07564651686917326,
    "receivedKBytesPerSec" : 0.08755034813700888,
    "sentKBytesPerSec" : 0.12248234860262623
  },
  "updateClassResourceOrder" : {
    "transaction" : "updateClassResourceOrder",
    "sampleCount" : 21,
    "errorCount" : 0,
    "errorPct" : 0.0,
    "meanResTime" : 19352.380952380954,
    "medianResTime" : 7845.0,
    "minResTime" : 262.0,
    "maxResTime" : 64130.0,
    "pct1ResTime" : 55605.6,
    "pct2ResTime" : 63289.09999999999,
    "pct3ResTime" : 64130.0,
    "throughput" : 0.06425909266161162,
    "receivedKBytesPerSec" : 0.03790282418712248,
    "sentKBytesPerSec" : 0.06112144165274386
  },
  "getChildPortfolio" : {
    "transaction" : "getChildPortfolio",
    "sampleCount" : 36,
    "errorCount" : 21,
    "errorPct" : 58.333332,
    "meanResTime" : 261439.33333333328,
    "medianResTime" : 251730.0,
    "minResTime" : 103912.0,
    "maxResTime" : 383096.0,
    "pct1ResTime" : 362745.9000000001,
    "pct2ResTime" : 382571.55,
    "pct3ResTime" : 383096.0,
    "throughput" : 0.09396582776063772,
    "receivedKBytesPerSec" : 0.10857151876184361,
    "sentKBytesPerSec" : 0.22729819859677697
  },
  "getStaffCheckInOutRecordsByRole" : {
    "transaction" : "getStaffCheckInOutRecordsByRole",
    "sampleCount" : 43,
    "errorCount" : 0,
    "errorPct" : 0.0,
    "meanResTime" : 17590.674418604653,
    "medianResTime" : 4775.0,
    "minResTime" : 23.0,
    "maxResTime" : 349628.0,
    "pct1ResTime" : 36879.8,
    "pct2ResTime" : 50297.39999999997,
    "pct3ResTime" : 349628.0,
    "throughput" : 0.1128010870876858,
    "receivedKBytesPerSec" : 0.06752643201635879,
    "sentKBytesPerSec" : 0.20588401539734838
  },
  "findAllCentreForSchool" : {
    "transaction" : "findAllCentreForSchool",
    "sampleCount" : 74,
    "errorCount" : 57,
    "errorPct" : 77.02702,
    "meanResTime" : 253832.43243243246,
    "medianResTime" : 263039.0,
    "minResTime" : 55966.0,
    "maxResTime" : 383485.0,
    "pct1ResTime" : 376682.0,
    "pct2ResTime" : 377643.0,
    "pct3ResTime" : 383485.0,
    "throughput" : 0.19290324598813385,
    "receivedKBytesPerSec" : 40.6952150911924,
    "sentKBytesPerSec" : 0.4745955467373283
  },
  "portfolioByID" : {
    "transaction" : "portfolioByID",
    "sampleCount" : 34,
    "errorCount" : 6,
    "errorPct" : 17.647058,
    "meanResTime" : 92799.08823529411,
    "medianResTime" : 77816.0,
    "minResTime" : 9871.0,
    "maxResTime" : 291041.0,
    "pct1ResTime" : 175181.5,
    "pct2ResTime" : 247436.0,
    "pct3ResTime" : 291041.0,
    "throughput" : 0.08863214531500908,
    "receivedKBytesPerSec" : 0.12711594990850034,
    "sentKBytesPerSec" : 0.31151083104366956
  },
  "findAllAbsentForVoidingSubsidyByChild" : {
    "transaction" : "findAllAbsentForVoidingSubsidyByChild",
    "sampleCount" : 37,
    "errorCount" : 4,
    "errorPct" : 10.810811,
    "meanResTime" : 134311.2162162162,
    "medianResTime" : 112320.0,
    "minResTime" : 15276.0,
    "maxResTime" : 376461.0,
    "pct1ResTime" : 299426.2,
    "pct2ResTime" : 375628.5,
    "pct3ResTime" : 376461.0,
    "throughput" : 0.09653693320426954,
    "receivedKBytesPerSec" : 0.05945144273794397,
    "sentKBytesPerSec" : 0.12849593745841736
  },
  "invoicesByFkChild" : {
    "transaction" : "invoicesByFkChild",
    "sampleCount" : 34,
    "errorCount" : 12,
    "errorPct" : 35.294117,
    "meanResTime" : 163793.50000000003,
    "medianResTime" : 153126.5,
    "minResTime" : 35111.0,
    "maxResTime" : 378390.0,
    "pct1ResTime" : 307654.0,
    "pct2ResTime" : 378336.0,
    "pct3ResTime" : 378390.0,
    "throughput" : 0.08863145217420773,
    "receivedKBytesPerSec" : 0.18012173709174137,
    "sentKBytesPerSec" : 0.2575851578812912
  },
  "getCountStaffCheckInOutRecordsByRole" : {
    "transaction" : "getCountStaffCheckInOutRecordsByRole",
    "sampleCount" : 43,
    "errorCount" : 0,
    "errorPct" : 0.0,
    "meanResTime" : 10890.139534883721,
    "medianResTime" : 5244.0,
    "minResTime" : 183.0,
    "maxResTime" : 84304.0,
    "pct1ResTime" : 28805.600000000002,
    "pct2ResTime" : 57801.99999999994,
    "pct3ResTime" : 84304.0,
    "throughput" : 0.1279327847099496,
    "receivedKBytesPerSec" : 0.07720943452221568,
    "sentKBytesPerSec" : 0.1398015489164391
  },
  "findAllFeeDraft" : {
    "transaction" : "findAllFeeDraft",
    "sampleCount" : 32,
    "errorCount" : 4,
    "errorPct" : 12.5,
    "meanResTime" : 89909.78125,
    "medianResTime" : 74056.5,
    "minResTime" : 35955.0,
    "maxResTime" : 342872.0,
    "pct1ResTime" : 150407.69999999998,
    "pct2ResTime" : 248204.6999999997,
    "pct3ResTime" : 342872.0,
    "throughput" : 0.08341914208626061,
    "receivedKBytesPerSec" : 0.04703528043169406,
    "sentKBytesPerSec" : 0.13286779369403423
  },
  "getPastEvents" : {
    "transaction" : "getPastEvents",
    "sampleCount" : 26,
    "errorCount" : 2,
    "errorPct" : 7.6923075,
    "meanResTime" : 82398.46153846155,
    "medianResTime" : 68275.5,
    "minResTime" : 5931.0,
    "maxResTime" : 271953.0,
    "pct1ResTime" : 195157.60000000006,
    "pct2ResTime" : 268739.64999999997,
    "pct3ResTime" : 271953.0,
    "throughput" : 0.06868059297767352,
    "receivedKBytesPerSec" : 0.034262906998552424,
    "sentKBytesPerSec" : 0.08652145013788949
  },
  "findAllConsolidatedRefund" : {
    "transaction" : "findAllConsolidatedRefund",
    "sampleCount" : 25,
    "errorCount" : 2,
    "errorPct" : 8.0,
    "meanResTime" : 103759.12000000002,
    "medianResTime" : 94292.0,
    "minResTime" : 35625.0,
    "maxResTime" : 288131.0,
    "pct1ResTime" : 199477.80000000002,
    "pct2ResTime" : 261880.09999999995,
    "pct3ResTime" : 288131.0,
    "throughput" : 0.0651706950845655,
    "receivedKBytesPerSec" : 0.0928733319560593,
    "sentKBytesPerSec" : 0.11258492148886363
  },
  "Total" : {
    "transaction" : "Total",
    "sampleCount" : 1542,
    "errorCount" : 284,
    "errorPct" : 18.417639,
    "meanResTime" : 106668.93450064842,
    "medianResTime" : 77276.0,
    "minResTime" : 2.0,
    "maxResTime" : 383485.0,
    "pct1ResTime" : 269303.6,
    "pct2ResTime" : 332357.85,
    "pct3ResTime" : 377527.89,
    "throughput" : 4.019655122974857,
    "receivedKBytesPerSec" : 78.97518711794378,
    "sentKBytesPerSec" : 7.157839219497412
  },
  "getMyDownloadAlbum" : {
    "transaction" : "getMyDownloadAlbum",
    "sampleCount" : 33,
    "errorCount" : 0,
    "errorPct" : 0.0,
    "meanResTime" : 39786.57575757576,
    "medianResTime" : 17751.0,
    "minResTime" : 474.0,
    "maxResTime" : 283222.0,
    "pct1ResTime" : 88392.40000000001,
    "pct2ResTime" : 237887.1999999998,
    "pct3ResTime" : 283222.0,
    "throughput" : 0.0894173242001214,
    "receivedKBytesPerSec" : 0.0585054757950013,
    "sentKBytesPerSec" : 0.14119903635898076
  },
  "getRefundChildBalance" : {
    "transaction" : "getRefundChildBalance",
    "sampleCount" : 32,
    "errorCount" : 3,
    "errorPct" : 9.375,
    "meanResTime" : 89185.0,
    "medianResTime" : 69925.5,
    "minResTime" : 4031.0,
    "maxResTime" : 367777.0,
    "pct1ResTime" : 184354.8,
    "pct2ResTime" : 268583.74999999965,
    "pct3ResTime" : 367777.0,
    "throughput" : 0.08460102684496333,
    "receivedKBytesPerSec" : 0.07737193519561344,
    "sentKBytesPerSec" : 0.13243695901609007
  },
  "findAllUploadedGiroFiles" : {
    "transaction" : "findAllUploadedGiroFiles",
    "sampleCount" : 38,
    "errorCount" : 3,
    "errorPct" : 7.894737,
    "meanResTime" : 81598.47368421055,
    "medianResTime" : 56116.5,
    "minResTime" : 18297.0,
    "maxResTime" : 253471.0,
    "pct1ResTime" : 160105.2,
    "pct2ResTime" : 203264.44999999984,
    "pct3ResTime" : 253471.0,
    "throughput" : 0.09906746233481152,
    "receivedKBytesPerSec" : 26.062263289052783,
    "sentKBytesPerSec" : 0.1417322581254872
  },
  "findAllInvoice" : {
    "transaction" : "findAllInvoice",
    "sampleCount" : 69,
    "errorCount" : 41,
    "errorPct" : 59.420288,
    "meanResTime" : 207922.884057971,
    "medianResTime" : 169436.0,
    "minResTime" : 23571.0,
    "maxResTime" : 383337.0,
    "pct1ResTime" : 376944.0,
    "pct2ResTime" : 378259.5,
    "pct3ResTime" : 383337.0,
    "throughput" : 0.17998747913188648,
    "receivedKBytesPerSec" : 0.16016379023633137,
    "sentKBytesPerSec" : 0.5788940022107157
  },
  "getAllArea" : {
    "transaction" : "getAllArea",
    "sampleCount" : 34,
    "errorCount" : 0,
    "errorPct" : 0.0,
    "meanResTime" : 435.44117647058806,
    "medianResTime" : 174.0,
    "minResTime" : 48.0,
    "maxResTime" : 4952.0,
    "pct1ResTime" : 261.0,
    "pct2ResTime" : 4701.5,
    "pct3ResTime" : 4952.0,
    "throughput" : 0.12655824843384167,
    "receivedKBytesPerSec" : 0.10040762690256132,
    "sentKBytesPerSec" : 0.11901913402518509
  },
  "getChildChecklist" : {
    "transaction" : "getChildChecklist",
    "sampleCount" : 33,
    "errorCount" : 14,
    "errorPct" : 42.424244,
    "meanResTime" : 208272.21212121213,
    "medianResTime" : 190996.0,
    "minResTime" : 97281.0,
    "maxResTime" : 375828.0,
    "pct1ResTime" : 341760.80000000005,
    "pct2ResTime" : 375354.1,
    "pct3ResTime" : 375828.0,
    "throughput" : 0.08607423250476016,
    "receivedKBytesPerSec" : 0.1451229084613579,
    "sentKBytesPerSec" : 0.28343975781840947
  },
  "bankAccountInfoByIDChild" : {
    "transaction" : "bankAccountInfoByIDChild",
    "sampleCount" : 40,
    "errorCount" : 14,
    "errorPct" : 35.0,
    "meanResTime" : 176971.02500000005,
    "medianResTime" : 164871.0,
    "minResTime" : 57926.0,
    "maxResTime" : 331183.0,
    "pct1ResTime" : 298921.89999999997,
    "pct2ResTime" : 325432.49999999994,
    "pct3ResTime" : 331183.0,
    "throughput" : 0.1043653413138031,
    "receivedKBytesPerSec" : 0.123742744162716,
    "sentKBytesPerSec" : 0.2402237397232753
  },
  "findAllCreditDebitNotes" : {
    "transaction" : "findAllCreditDebitNotes",
    "sampleCount" : 37,
    "errorCount" : 20,
    "errorPct" : 54.054054,
    "meanResTime" : 252199.54054054045,
    "medianResTime" : 268226.0,
    "minResTime" : 100498.0,
    "maxResTime" : 377484.0,
    "pct1ResTime" : 371437.6,
    "pct2ResTime" : 377367.0,
    "pct3ResTime" : 377484.0,
    "throughput" : 0.09683252944886588,
    "receivedKBytesPerSec" : 0.12043239159336619,
    "sentKBytesPerSec" : 0.22619473675946014
  }
}